-------------------------------------------------------------------------------
Test set: com.dockerforjavadevelopers.hello.DummyTest
-------------------------------------------------------------------------------
Tests run: 1, Failures: 0, Errors: 0, Skipped: 0, Time elapsed: 0.042 sec - in com.dockerforjavadevelopers.hello.DummyTest
